{
  "name": "aime",
  "title": "Adventures in Middle-Earth",
  "description": "Adventures in Middle-Earth in the DND5E System.",
  "version": "0.1.5",
  "scripts": [],
  "esmodules": [ "/aime.js" ],
  "styles": [ "/styles/aime.css" ],
  "packs": [],
  "languages": [
    {
      "lang": "en",
      "name": "English",
      "path": "lang/en.json"
    },
    {
      "lang": "de",
      "name": "Deutsch",
      "path": "lang/de.json"
    },
    {
      "lang": "es",
      "name": "Español",
      "path": "lang/es.json"
    },
    {
      "lang": "it",
      "name": "Italiano",
      "path": "lang/it.json"
    }
  ],
  "compatibleCoreVersion": "0.7.9",
  "minimumCoreVersion": "0.7.1",
  "url": "https://gitlab.com/miketremp/aime-module",
  "original authors": "Alakar, Paub",
  "contributors": "/user/ReactionMission/",
  "author": "Minas",
  "manifest": "https://gitlab.com/miketremp/aime-module/-/raw/master/module.json",
  "download": "https://gitlab.com/miketremp/aime-module/-/archive/v0.1.5/aime-module-v0.1.5.zip"
}
